sim/digital_signal_measure_tb/digital_signal_measure_tb.vcd
$date
	Thu Sep 11 00:04:35 2025
$end
$version
	ModelSim Version 10.7
$end
$timescale
	1ps
$end

$scope module digital_signal_measure_tb $end
$var parameter 32 ! CLK_PERIOD $end
$var reg 1 " clk $end
$var reg 1 # rst_n $end
$var reg 1 $ measure_start $end
$var reg 1 % measure_pin $end
$var wire 1 & high_time [15] $end
$var wire 1 ' high_time [14] $end
$var wire 1 ( high_time [13] $end
$var wire 1 ) high_time [12] $end
$var wire 1 * high_time [11] $end
$var wire 1 + high_time [10] $end
$var wire 1 , high_time [9] $end
$var wire 1 - high_time [8] $end
$var wire 1 . high_time [7] $end
$var wire 1 / high_time [6] $end
$var wire 1 0 high_time [5] $end
$var wire 1 1 high_time [4] $end
$var wire 1 2 high_time [3] $end
$var wire 1 3 high_time [2] $end
$var wire 1 4 high_time [1] $end
$var wire 1 5 high_time [0] $end
$var wire 1 6 low_time [15] $end
$var wire 1 7 low_time [14] $end
$var wire 1 8 low_time [13] $end
$var wire 1 9 low_time [12] $end
$var wire 1 : low_time [11] $end
$var wire 1 ; low_time [10] $end
$var wire 1 < low_time [9] $end
$var wire 1 = low_time [8] $end
$var wire 1 > low_time [7] $end
$var wire 1 ? low_time [6] $end
$var wire 1 @ low_time [5] $end
$var wire 1 A low_time [4] $end
$var wire 1 B low_time [3] $end
$var wire 1 C low_time [2] $end
$var wire 1 D low_time [1] $end
$var wire 1 E low_time [0] $end
$var wire 1 F period_time [15] $end
$var wire 1 G period_time [14] $end
$var wire 1 H period_time [13] $end
$var wire 1 I period_time [12] $end
$var wire 1 J period_time [11] $end
$var wire 1 K period_time [10] $end
$var wire 1 L period_time [9] $end
$var wire 1 M period_time [8] $end
$var wire 1 N period_time [7] $end
$var wire 1 O period_time [6] $end
$var wire 1 P period_time [5] $end
$var wire 1 Q period_time [4] $end
$var wire 1 R period_time [3] $end
$var wire 1 S period_time [2] $end
$var wire 1 T period_time [1] $end
$var wire 1 U period_time [0] $end
$var wire 1 V duty_cycle [15] $end
$var wire 1 W duty_cycle [14] $end
$var wire 1 X duty_cycle [13] $end
$var wire 1 Y duty_cycle [12] $end
$var wire 1 Z duty_cycle [11] $end
$var wire 1 [ duty_cycle [10] $end
$var wire 1 \ duty_cycle [9] $end
$var wire 1 ] duty_cycle [8] $end
$var wire 1 ^ duty_cycle [7] $end
$var wire 1 _ duty_cycle [6] $end
$var wire 1 ` duty_cycle [5] $end
$var wire 1 a duty_cycle [4] $end
$var wire 1 b duty_cycle [3] $end
$var wire 1 c duty_cycle [2] $end
$var wire 1 d duty_cycle [1] $end
$var wire 1 e duty_cycle [0] $end
$var wire 1 f measure_done $end

$scope task generate_test_signal $end
$var reg 16 g high_cycles [15:0] $end
$var reg 16 h low_cycles [15:0] $end
$var integer 32 i i $end
$upscope $end

$scope task check_results $end
$var reg 16 j expected_high [15:0] $end
$var reg 16 k expected_low [15:0] $end
$var reg 16 l expected_period [15:0] $end
$var reg 16 m expected_duty [15:0] $end
$upscope $end

$scope module dut $end
$var parameter 3 n IDLE $end
$var parameter 3 o WAIT_RISING $end
$var parameter 3 p MEASURE_HIGH $end
$var parameter 3 q MEASURE_LOW $end
$var parameter 3 r CALCULATE $end
$var parameter 3 s DONE $end
$var wire 1 t clk $end
$var wire 1 u rst_n $end
$var wire 1 v measure_start $end
$var wire 1 w measure_pin $end
$var reg 16 x high_time [15:0] $end
$var reg 16 y low_time [15:0] $end
$var reg 16 z period_time [15:0] $end
$var reg 16 { duty_cycle [15:0] $end
$var reg 1 | measure_done $end
$var reg 3 } state [2:0] $end
$var reg 3 ~ next_state [2:0] $end
$var reg 16 !! high_counter [15:0] $end
$var reg 16 "! low_counter [15:0] $end
$var reg 16 #! period_counter [15:0] $end
$var reg 1 $! measure_pin_sync1 $end
$var reg 1 %! measure_pin_sync2 $end
$var reg 1 &! measure_pin_sync3 $end
$var wire 1 '! rising_edge $end
$var wire 1 (! falling_edge $end
$upscope $end
$upscope $end
$enddefinitions $end
#0
$dumpvars
0"
0#
0$
0%
b0 x
b0 y
b0 z
b0 {
0|
b0 }
b0 ~
b0 !!
b0 "!
b0 #!
0$!
0%!
0&!
bx g
bx h
bx j
bx k
bx l
bx m
b10100 !
b0 n
b1 o
b10 p
b11 q
b100 r
b101 s
bx i
05
04
03
02
01
00
0/
0.
0-
0,
0+
0*
0)
0(
0'
0&
0E
0D
0C
0B
0A
0@
0?
0>
0=
0<
0;
0:
09
08
07
06
0U
0T
0S
0R
0Q
0P
0O
0N
0M
0L
0K
0J
0I
0H
0G
0F
0e
0d
0c
0b
0a
0`
0_
0^
0]
0\
0[
0Z
0Y
0X
0W
0V
0f
0'!
0(!
0w
0v
0u
0t
$end
#10000
1"
1t
#20000
0"
0t
#30000
1"
1t
#40000
0"
0t
#50000
1"
1t
#60000
0"
0t
#70000
1"
1t
#80000
0"
0t
#90000
1"
1t
#100000
0"
0t
#110000
1"
1t
#120000
0"
0t
#130000
1"
1t
#140000
0"
0t
#150000
1"
1t
#160000
0"
0t
#170000
1"
1t
#180000
0"
0t
#190000
1"
1t
#200000
1#
0"
1u
0t
#210000
1"
1t
#220000
0"
0t
#230000
1"
1t
#240000
0"
0t
#250000
1"
1t
#260000
0"
0t
#270000
1"
1t
#280000
0"
0t
#290000
1"
1t
#300000
1$
0"
1v
0t
b1 ~
#310000
1"
1t
b1 }
#320000
0"
0t
#330000
1"
1t
#340000
b110010 g
b110010 h
1%
b0 i
b110010 j
b110010 k
b1100100 l
b110010 m
0"
1w
0t
#350000
1"
1t
b1 i
1$!
#360000
0"
0t
#370000
1"
1t
b10 i
1%!
1'!
b10 ~
#380000
0"
0t
#390000
1"
1t
b11 i
b10 }
1&!
0'!
#400000
0"
0t
#410000
1"
1t
b100 i
b1 !!
b1 #!
#420000
0"
0t
#430000
1"
1t
b101 i
b10 !!
b10 #!
#440000
0"
0t
#450000
1"
1t
b110 i
b11 !!
b11 #!
#460000
0"
0t
#470000
1"
1t
b111 i
b100 !!
b100 #!
#480000
0"
0t
#490000
1"
1t
b1000 i
b101 !!
b101 #!
#500000
0"
0t
#510000
1"
1t
b1001 i
b110 !!
b110 #!
#520000
0"
0t
#530000
1"
1t
b1010 i
b111 !!
b111 #!
#540000
0"
0t
#550000
1"
1t
b1011 i
b1000 !!
b1000 #!
#560000
0"
0t
#570000
1"
1t
b1100 i
b1001 !!
b1001 #!
#580000
0"
0t
#590000
1"
1t
b1101 i
b1010 !!
b1010 #!
#600000
0"
0t
#610000
1"
1t
b1110 i
b1011 !!
b1011 #!
#620000
0"
0t
#630000
1"
1t
b1111 i
b1100 !!
b1100 #!
#640000
0"
0t
#650000
1"
1t
b10000 i
b1101 !!
b1101 #!
#660000
0"
0t
#670000
1"
1t
b10001 i
b1110 !!
b1110 #!
#680000
0"
0t
#690000
1"
1t
b10010 i
b1111 !!
b1111 #!
#700000
0"
0t
#710000
1"
1t
b10011 i
b10000 !!
b10000 #!
#720000
0"
0t
#730000
1"
1t
b10100 i
b10001 !!
b10001 #!
#740000
0"
0t
#750000
1"
1t
b10101 i
b10010 !!
b10010 #!
#760000
0"
0t
#770000
1"
1t
b10110 i
b10011 !!
b10011 #!
#780000
0"
0t
#790000
1"
1t
b10111 i
b10100 !!
b10100 #!
#800000
0"
0t
#810000
1"
1t
b11000 i
b10101 !!
b10101 #!
#820000
0"
0t
#830000
1"
1t
b11001 i
b10110 !!
b10110 #!
#840000
0"
0t
#850000
1"
1t
b11010 i
b10111 !!
b10111 #!
#860000
0"
0t
#870000
1"
1t
b11011 i
b11000 !!
b11000 #!
#880000
0"
0t
#890000
1"
1t
b11100 i
b11001 !!
b11001 #!
#900000
0"
0t
#910000
1"
1t
b11101 i
b11010 !!
b11010 #!
#920000
0"
0t
#930000
1"
1t
b11110 i
b11011 !!
b11011 #!
#940000
0"
0t
#950000
1"
1t
b11111 i
b11100 !!
b11100 #!
#960000
0"
0t
#970000
1"
1t
b100000 i
b11101 !!
b11101 #!
#980000
0"
0t
#990000
1"
1t
b100001 i
b11110 !!
b11110 #!
#1000000
0"
0t
#1010000
1"
1t
b100010 i
b11111 !!
b11111 #!
#1020000
0"
0t
#1030000
1"
1t
b100011 i
b100000 !!
b100000 #!
#1040000
0"
0t
#1050000
1"
1t
b100100 i
b100001 !!
b100001 #!
#1060000
0"
0t
#1070000
1"
1t
b100101 i
b100010 !!
b100010 #!
#1080000
0"
0t
#1090000
1"
1t
b100110 i
b100011 !!
b100011 #!
#1100000
0"
0t
#1110000
1"
1t
b100111 i
b100100 !!
b100100 #!
#1120000
0"
0t
#1130000
1"
1t
b101000 i
b100101 !!
b100101 #!
#1140000
0"
0t
#1150000
1"
1t
b101001 i
b100110 !!
b100110 #!
#1160000
0"
0t
#1170000
1"
1t
b101010 i
b100111 !!
b100111 #!
#1180000
0"
0t
#1190000
1"
1t
b101011 i
b101000 !!
b101000 #!
#1200000
0"
0t
#1210000
1"
1t
b101100 i
b101001 !!
b101001 #!
#1220000
0"
0t
#1230000
1"
1t
b101101 i
b101010 !!
b101010 #!
#1240000
0"
0t
#1250000
1"
1t
b101110 i
b101011 !!
b101011 #!
#1260000
0"
0t
#1270000
1"
1t
b101111 i
b101100 !!
b101100 #!
#1280000
0"
0t
#1290000
1"
1t
b110000 i
b101101 !!
b101101 #!
#1300000
0"
0t
#1310000
1"
1t
b110001 i
b101110 !!
b101110 #!
#1320000
0"
0t
#1330000
1"
1t
b110010 i
0%
b0 i
0w
b101111 !!
b101111 #!
#1340000
0"
0t
#1350000
1"
1t
b1 i
b110000 !!
b110000 #!
0$!
#1360000
0"
0t
#1370000
1"
1t
b10 i
0%!
b110001 !!
b110001 #!
1(!
b11 ~
#1380000
0"
0t
#1390000
1"
1t
b11 i
b11 }
0&!
0(!
#1400000
0"
0t
#1410000
1"
1t
b100 i
b1 "!
b110010 #!
#1420000
0"
0t
#1430000
1"
1t
b101 i
b10 "!
b110011 #!
#1440000
0"
0t
#1450000
1"
1t
b110 i
b11 "!
b110100 #!
#1460000
0"
0t
#1470000
1"
1t
b111 i
b100 "!
b110101 #!
#1480000
0"
0t
#1490000
1"
1t
b1000 i
b101 "!
b110110 #!
#1500000
0"
0t
#1510000
1"
1t
b1001 i
b110 "!
b110111 #!
#1520000
0"
0t
#1530000
1"
1t
b1010 i
b111 "!
b111000 #!
#1540000
0"
0t
#1550000
1"
1t
b1011 i
b1000 "!
b111001 #!
#1560000
0"
0t
#1570000
1"
1t
b1100 i
b1001 "!
b111010 #!
#1580000
0"
0t
#1590000
1"
1t
b1101 i
b1010 "!
b111011 #!
#1600000
0"
0t
#1610000
1"
1t
b1110 i
b1011 "!
b111100 #!
#1620000
0"
0t
#1630000
1"
1t
b1111 i
b1100 "!
b111101 #!
#1640000
0"
0t
#1650000
1"
1t
b10000 i
b1101 "!
b111110 #!
#1660000
0"
0t
#1670000
1"
1t
b10001 i
b1110 "!
b111111 #!
#1680000
0"
0t
#1690000
1"
1t
b10010 i
b1111 "!
b1000000 #!
#1700000
0"
0t
#1710000
1"
1t
b10011 i
b10000 "!
b1000001 #!
#1720000
0"
0t
#1730000
1"
1t
b10100 i
b10001 "!
b1000010 #!
#1740000
0"
0t
#1750000
1"
1t
b10101 i
b10010 "!
b1000011 #!
#1760000
0"
0t
#1770000
1"
1t
b10110 i
b10011 "!
b1000100 #!
#1780000
0"
0t
#1790000
1"
1t
b10111 i
b10100 "!
b1000101 #!
#1800000
0"
0t
#1810000
1"
1t
b11000 i
b10101 "!
b1000110 #!
#1820000
0"
0t
#1830000
1"
1t
b11001 i
b10110 "!
b1000111 #!
#1840000
0"
0t
#1850000
1"
1t
b11010 i
b10111 "!
b1001000 #!
#1860000
0"
0t
#1870000
1"
1t
b11011 i
b11000 "!
b1001001 #!
#1880000
0"
0t
#1890000
1"
1t
b11100 i
b11001 "!
b1001010 #!
#1900000
0"
0t
#1910000
1"
1t
b11101 i
b11010 "!
b1001011 #!
#1920000
0"
0t
#1930000
1"
1t
b11110 i
b11011 "!
b1001100 #!
#1940000
0"
0t
#1950000
1"
1t
b11111 i
b11100 "!
b1001101 #!
#1960000
0"
0t
#1970000
1"
1t
b100000 i
b11101 "!
b1001110 #!
#1980000
0"
0t
#1990000
1"
1t
b100001 i
b11110 "!
b1001111 #!
#2000000
0"
0t
#2010000
1"
1t
b100010 i
b11111 "!
b1010000 #!
#2020000
0"
0t
#2030000
1"
1t
b100011 i
b100000 "!
b1010001 #!
#2040000
0"
0t
#2050000
1"
1t
b100100 i
b100001 "!
b1010010 #!
#2060000
0"
0t
#2070000
1"
1t
b100101 i
b100010 "!
b1010011 #!
#2080000
0"
0t
#2090000
1"
1t
b100110 i
b100011 "!
b1010100 #!
#2100000
0"
0t
#2110000
1"
1t
b100111 i
b100100 "!
b1010101 #!
#2120000
0"
0t
#2130000
1"
1t
b101000 i
b100101 "!
b1010110 #!
#2140000
0"
0t
#2150000
1"
1t
b101001 i
b100110 "!
b1010111 #!
#2160000
0"
0t
#2170000
1"
1t
b101010 i
b100111 "!
b1011000 #!
#2180000
0"
0t
#2190000
1"
1t
b101011 i
b101000 "!
b1011001 #!
#2200000
0"
0t
#2210000
1"
1t
b101100 i
b101001 "!
b1011010 #!
#2220000
0"
0t
#2230000
1"
1t
b101101 i
b101010 "!
b1011011 #!
#2240000
0"
0t
#2250000
1"
1t
b101110 i
b101011 "!
b1011100 #!
#2260000
0"
0t
#2270000
1"
1t
b101111 i
b101100 "!
b1011101 #!
#2280000
0"
0t
#2290000
1"
1t
b110000 i
b101101 "!
b1011110 #!
#2300000
0"
0t
#2310000
1"
1t
b110001 i
b101110 "!
b1011111 #!
#2320000
0"
0t
#2330000
1"
1t
b110010 i
1%
b0 i
1w
b101111 "!
b1100000 #!
#2340000
0"
0t
#2350000
1"
1t
b1 i
b110000 "!
b1100001 #!
1$!
#2360000
0"
0t
#2370000
1"
1t
b10 i
1%!
b110001 "!
b1100010 #!
1'!
b100 ~
#2380000
0"
0t
#2390000
1"
1t
b11 i
b100 }
1&!
0'!
b101 ~
#2400000
0"
0t
#2410000
1"
1t
b100 i
b101 }
b110001 x
b110001 y
b1100010 z
b110010 {
1d
1a
1`
1T
1P
1O
1E
1A
1@
15
11
10
#2420000
0"
0t
#2430000
1"
1t
b101 i
1|
1f
#2440000
0"
0t
#2450000
1"
1t
b110 i
#2460000
0"
0t
#2470000
1"
1t
b111 i
#2480000
0"
0t
#2490000
1"
1t
b1000 i
#2500000
0"
0t
#2510000
1"
1t
b1001 i
#2520000
0"
0t
#2530000
1"
1t
b1010 i
#2540000
0"
0t
#2550000
1"
1t
b1011 i
#2560000
0"
0t
#2570000
1"
1t
b1100 i
#2580000
0"
0t
#2590000
1"
1t
b1101 i
#2600000
0"
0t
#2610000
1"
1t
b1110 i
#2620000
0"
0t
#2630000
1"
1t
b1111 i
#2640000
0"
0t
#2650000
1"
1t
b10000 i
#2660000
0"
0t
#2670000
1"
1t
b10001 i
#2680000
0"
0t
#2690000
1"
1t
b10010 i
#2700000
0"
0t
#2710000
1"
1t
b10011 i
#2720000
0"
0t
#2730000
1"
1t
b10100 i
#2740000
0"
0t
#2750000
1"
1t
b10101 i
#2760000
0"
0t
#2770000
1"
1t
b10110 i
#2780000
0"
0t
#2790000
1"
1t
b10111 i
#2800000
0"
0t
#2810000
1"
1t
b11000 i
#2820000
0"
0t
#2830000
1"
1t
b11001 i
#2840000
0"
0t
#2850000
1"
1t
b11010 i
#2860000
0"
0t
#2870000
1"
1t
b11011 i
#2880000
0"
0t
#2890000
1"
1t
b11100 i
#2900000
0"
0t
#2910000
1"
1t
b11101 i
#2920000
0"
0t
#2930000
1"
1t
b11110 i
#2940000
0"
0t
#2950000
1"
1t
b11111 i
#2960000
0"
0t
#2970000
1"
1t
b100000 i
#2980000
0"
0t
#2990000
1"
1t
b100001 i
#3000000
0"
0t
#3010000
1"
1t
b100010 i
#3020000
0"
0t
#3030000
1"
1t
b100011 i
#3040000
0"
0t
#3050000
1"
1t
b100100 i
#3060000
0"
0t
#3070000
1"
1t
b100101 i
#3080000
0"
0t
#3090000
1"
1t
b100110 i
#3100000
0"
0t
#3110000
1"
1t
b100111 i
#3120000
0"
0t
#3130000
1"
1t
b101000 i
#3140000
0"
0t
#3150000
1"
1t
b101001 i
#3160000
0"
0t
#3170000
1"
1t
b101010 i
#3180000
0"
0t
#3190000
1"
1t
b101011 i
#3200000
0"
0t
#3210000
1"
1t
b101100 i
#3220000
0"
0t
#3230000
1"
1t
b101101 i
#3240000
0"
0t
#3250000
1"
1t
b101110 i
#3260000
0"
0t
#3270000
1"
1t
b101111 i
#3280000
0"
0t
#3290000
1"
1t
b110000 i
#3300000
0"
0t
#3310000
1"
1t
b110001 i
#3320000
0"
0t
#3330000
1"
1t
b110010 i
0%
b0 i
0w
#3340000
0"
0t
#3350000
1"
1t
b1 i
0$!
#3360000
0"
0t
#3370000
1"
1t
b10 i
0%!
1(!
#3380000
0"
0t
#3390000
1"
1t
b11 i
0&!
0(!
#3400000
0"
0t
#3410000
1"
1t
b100 i
#3420000
0"
0t
#3430000
1"
1t
b101 i
#3440000
0"
0t
#3450000
1"
1t
b110 i
#3460000
0"
0t
#3470000
1"
1t
b111 i
#3480000
0"
0t
#3490000
1"
1t
b1000 i
#3500000
0"
0t
#3510000
1"
1t
b1001 i
#3520000
0"
0t
#3530000
1"
1t
b1010 i
#3540000
0"
0t
#3550000
1"
1t
b1011 i
#3560000
0"
0t
#3570000
1"
1t
b1100 i
#3580000
0"
0t
#3590000
1"
1t
b1101 i
#3600000
0"
0t
#3610000
1"
1t
b1110 i
#3620000
0"
0t
#3630000
1"
1t
b1111 i
#3640000
0"
0t
#3650000
1"
1t
b10000 i
#3660000
0"
0t
#3670000
1"
1t
b10001 i
#3680000
0"
0t
#3690000
1"
1t
b10010 i
#3700000
0"
0t
#3710000
1"
1t
b10011 i
#3720000
0"
0t
#3730000
1"
1t
b10100 i
#3740000
0"
0t
#3750000
1"
1t
b10101 i
#3760000
0"
0t
#3770000
1"
1t
b10110 i
#3780000
0"
0t
#3790000
1"
1t
b10111 i
#3800000
0"
0t
#3810000
1"
1t
b11000 i
#3820000
0"
0t
#3830000
1"
1t
b11001 i
#3840000
0"
0t
#3850000
1"
1t
b11010 i
#3860000
0"
0t
#3870000
1"
1t
b11011 i
#3880000
0"
0t
#3890000
1"
1t
b11100 i
#3900000
0"
0t
#3910000
1"
1t
b11101 i
#3920000
0"
0t
#3930000
1"
1t
b11110 i
#3940000
0"
0t
#3950000
1"
1t
b11111 i
#3960000
0"
0t
#3970000
1"
1t
b100000 i
#3980000
0"
0t
#3990000
1"
1t
b100001 i
#4000000
0"
0t
#4010000
1"
1t
b100010 i
#4020000
0"
0t
#4030000
1"
1t
b100011 i
#4040000
0"
0t
#4050000
1"
1t
b100100 i
#4060000
0"
0t
#4070000
1"
1t
b100101 i
#4080000
0"
0t
#4090000
1"
1t
b100110 i
#4100000
0"
0t
#4110000
1"
1t
b100111 i
#4120000
0"
0t
#4130000
1"
1t
b101000 i
#4140000
0"
0t
#4150000
1"
1t
b101001 i
#4160000
0"
0t
#4170000
1"
1t
b101010 i
#4180000
0"
0t
#4190000
1"
1t
b101011 i
#4200000
0"
0t
#4210000
1"
1t
b101100 i
#4220000
0"
0t
#4230000
1"
1t
b101101 i
#4240000
0"
0t
#4250000
1"
1t
b101110 i
#4260000
0"
0t
#4270000
1"
1t
b101111 i
#4280000
0"
0t
#4290000
1"
1t
b110000 i
#4300000
0"
0t
#4310000
1"
1t
b110001 i
#4320000
0"
0t
#4330000
1"
1t
b110010 i
0$
0v
b0 ~
#4340000
0"
0t
#4350000
1"
1t
b0 }
#4360000
0"
0t
#4370000
1"
1t
b0 !!
b0 "!
b0 #!
0|
0f
#4380000
0"
0t
#4390000
1"
1t
#4400000
0"
0t
#4410000
1"
1t
#4420000
0"
0t
#4430000
1"
1t
#4440000
0"
0t
#4450000
1"
1t
#4460000
0"
0t
#4470000
1"
1t
#4480000
0"
0t
#4490000
1"
1t
#4500000
0"
0t
#4510000
1"
1t
#4520000
0"
0t
#4530000
1$
1"
1v
1t
b1 ~
#4540000
0"
0t
#4550000
1"
1t
b1 }
#4560000
0"
0t
#4570000
b10010110 h
1%
b0 i
b10010110 k
b11001000 l
b11001 m
1"
1w
1t
b1 i
1$!
#4580000
0"
0t
#4590000
1"
1t
b10 i
1%!
1'!
b10 ~
#4600000
0"
0t
#4610000
1"
1t
b11 i
b10 }
1&!
0'!
#4620000
0"
0t
#4630000
1"
1t
b100 i
b1 !!
b1 #!
#4640000
0"
0t
#4650000
1"
1t
b101 i
b10 !!
b10 #!
#4660000
0"
0t
#4670000
1"
1t
b110 i
b11 !!
b11 #!
#4680000
0"
0t
#4690000
1"
1t
b111 i
b100 !!
b100 #!
#4700000
0"
0t
#4710000
1"
1t
b1000 i
b101 !!
b101 #!
#4720000
0"
0t
#4730000
1"
1t
b1001 i
b110 !!
b110 #!
#4740000
0"
0t
#4750000
1"
1t
b1010 i
b111 !!
b111 #!
#4760000
0"
0t
#4770000
1"
1t
b1011 i
b1000 !!
b1000 #!
#4780000
0"
0t
#4790000
1"
1t
b1100 i
b1001 !!
b1001 #!
#4800000
0"
0t
#4810000
1"
1t
b1101 i
b1010 !!
b1010 #!
#4820000
0"
0t
#4830000
1"
1t
b1110 i
b1011 !!
b1011 #!
#4840000
0"
0t
#4850000
1"
1t
b1111 i
b1100 !!
b1100 #!
#4860000
0"
0t
#4870000
1"
1t
b10000 i
b1101 !!
b1101 #!
#4880000
0"
0t
#4890000
1"
1t
b10001 i
b1110 !!
b1110 #!
#4900000
0"
0t
#4910000
1"
1t
b10010 i
b1111 !!
b1111 #!
#4920000
0"
0t
#4930000
1"
1t
b10011 i
b10000 !!
b10000 #!
#4940000
0"
0t
#4950000
1"
1t
b10100 i
b10001 !!
b10001 #!
#4960000
0"
0t
#4970000
1"
1t
b10101 i
b10010 !!
b10010 #!
#4980000
0"
0t
#4990000
1"
1t
b10110 i
b10011 !!
b10011 #!
#5000000
0"
0t
#5010000
1"
1t
b10111 i
b10100 !!
b10100 #!
#5020000
0"
0t
#5030000
1"
1t
b11000 i
b10101 !!
b10101 #!
#5040000
0"
0t
#5050000
1"
1t
b11001 i
b10110 !!
b10110 #!
#5060000
0"
0t
#5070000
1"
1t
b11010 i
b10111 !!
b10111 #!
#5080000
0"
0t
#5090000
1"
1t
b11011 i
b11000 !!
b11000 #!
#5100000
0"
0t
#5110000
1"
1t
b11100 i
b11001 !!
b11001 #!
#5120000
0"
0t
#5130000
1"
1t
b11101 i
b11010 !!
b11010 #!
#5140000
0"
0t
#5150000
1"
1t
b11110 i
b11011 !!
b11011 #!
#5160000
0"
0t
#5170000
1"
1t
b11111 i
b11100 !!
b11100 #!
#5180000
0"
0t
#5190000
1"
1t
b100000 i
b11101 !!
b11101 #!
#5200000
0"
0t
#5210000
1"
1t
b100001 i
b11110 !!
b11110 #!
#5220000
0"
0t
#5230000
1"
1t
b100010 i
b11111 !!
b11111 #!
#5240000
0"
0t
#5250000
1"
1t
b100011 i
b100000 !!
b100000 #!
#5260000
0"
0t
#5270000
1"
1t
b100100 i
b100001 !!
b100001 #!
#5280000
0"
0t
#5290000
1"
1t
b100101 i
b100010 !!
b100010 #!
#5300000
0"
0t
#5310000
1"
1t
b100110 i
b100011 !!
b100011 #!
#5320000
0"
0t
#5330000
1"
1t
b100111 i
b100100 !!
b100100 #!
#5340000
0"
0t
#5350000
1"
1t
b101000 i
b100101 !!
b100101 #!
#5360000
0"
0t
#5370000
1"
1t
b101001 i
b100110 !!
b100110 #!
#5380000
0"
0t
#5390000
1"
1t
b101010 i
b100111 !!
b100111 #!
#5400000
0"
0t
#5410000
1"
1t
b101011 i
b101000 !!
b101000 #!
#5420000
0"
0t
#5430000
1"
1t
b101100 i
b101001 !!
b101001 #!
#5440000
0"
0t
#5450000
1"
1t
b101101 i
b101010 !!
b101010 #!
#5460000
0"
0t
#5470000
1"
1t
b101110 i
b101011 !!
b101011 #!
#5480000
0"
0t
#5490000
1"
1t
b101111 i
b101100 !!
b101100 #!
#5500000
0"
0t
#5510000
1"
1t
b110000 i
b101101 !!
b101101 #!
#5520000
0"
0t
#5530000
1"
1t
b110001 i
b101110 !!
b101110 #!
#5540000
0"
0t
#5550000
1"
1t
b110010 i
0%
b0 i
0w
b101111 !!
b101111 #!
#5560000
0"
0t
#5570000
1"
1t
b1 i
b110000 !!
b110000 #!
0$!
#5580000
0"
0t
#5590000
1"
1t
b10 i
0%!
b110001 !!
b110001 #!
1(!
b11 ~
#5600000
0"
0t
#5610000
1"
1t
b11 i
b11 }
0&!
0(!
#5620000
0"
0t
#5630000
1"
1t
b100 i
b1 "!
b110010 #!
#5640000
0"
0t
#5650000
1"
1t
b101 i
b10 "!
b110011 #!
#5660000
0"
0t
#5670000
1"
1t
b110 i
b11 "!
b110100 #!
#5680000
0"
0t
#5690000
1"
1t
b111 i
b100 "!
b110101 #!
#5700000
0"
0t
#5710000
1"
1t
b1000 i
b101 "!
b110110 #!
#5720000
0"
0t
#5730000
1"
1t
b1001 i
b110 "!
b110111 #!
#5740000
0"
0t
#5750000
1"
1t
b1010 i
b111 "!
b111000 #!
#5760000
0"
0t
#5770000
1"
1t
b1011 i
b1000 "!
b111001 #!
#5780000
0"
0t
#5790000
1"
1t
b1100 i
b1001 "!
b111010 #!
#5800000
0"
0t
#5810000
1"
1t
b1101 i
b1010 "!
b111011 #!
#5820000
0"
0t
#5830000
1"
1t
b1110 i
b1011 "!
b111100 #!
#5840000
0"
0t
#5850000
1"
1t
b1111 i
b1100 "!
b111101 #!
#5860000
0"
0t
#5870000
1"
1t
b10000 i
b1101 "!
b111110 #!
#5880000
0"
0t
#5890000
1"
1t
b10001 i
b1110 "!
b111111 #!
#5900000
0"
0t
#5910000
1"
1t
b10010 i
b1111 "!
b1000000 #!
#5920000
0"
0t
#5930000
1"
1t
b10011 i
b10000 "!
b1000001 #!
#5940000
0"
0t
#5950000
1"
1t
b10100 i
b10001 "!
b1000010 #!
#5960000
0"
0t
#5970000
1"
1t
b10101 i
b10010 "!
b1000011 #!
#5980000
0"
0t
#5990000
1"
1t
b10110 i
b10011 "!
b1000100 #!
#6000000
0"
0t
#6010000
1"
1t
b10111 i
b10100 "!
b1000101 #!
#6020000
0"
0t
#6030000
1"
1t
b11000 i
b10101 "!
b1000110 #!
#6040000
0"
0t
#6050000
1"
1t
b11001 i
b10110 "!
b1000111 #!
#6060000
0"
0t
#6070000
1"
1t
b11010 i
b10111 "!
b1001000 #!
#6080000
0"
0t
#6090000
1"
1t
b11011 i
b11000 "!
b1001001 #!
#6100000
0"
0t
#6110000
1"
1t
b11100 i
b11001 "!
b1001010 #!
#6120000
0"
0t
#6130000
1"
1t
b11101 i
b11010 "!
b1001011 #!
#6140000
0"
0t
#6150000
1"
1t
b11110 i
b11011 "!
b1001100 #!
#6160000
0"
0t
#6170000
1"
1t
b11111 i
b11100 "!
b1001101 #!
#6180000
0"
0t
#6190000
1"
1t
b100000 i
b11101 "!
b1001110 #!
#6200000
0"
0t
#6210000
1"
1t
b100001 i
b11110 "!
b1001111 #!
#6220000
0"
0t
#6230000
1"
1t
b100010 i
b11111 "!
b1010000 #!
#6240000
0"
0t
#6250000
1"
1t
b100011 i
b100000 "!
b1010001 #!
#6260000
0"
0t
#6270000
1"
1t
b100100 i
b100001 "!
b1010010 #!
#6280000
0"
0t
#6290000
1"
1t
b100101 i
b100010 "!
b1010011 #!
#6300000
0"
0t
#6310000
1"
1t
b100110 i
b100011 "!
b1010100 #!
#6320000
0"
0t
#6330000
1"
1t
b100111 i
b100100 "!
b1010101 #!
#6340000
0"
0t
#6350000
1"
1t
b101000 i
b100101 "!
b1010110 #!
#6360000
0"
0t
#6370000
1"
1t
b101001 i
b100110 "!
b1010111 #!
#6380000
0"
0t
#6390000
1"
1t
b101010 i
b100111 "!
b1011000 #!
#6400000
0"
0t
#6410000
1"
1t
b101011 i
b101000 "!
b1011001 #!
#6420000
0"
0t
#6430000
1"
1t
b101100 i
b101001 "!
b1011010 #!
#6440000
0"
0t
#6450000
1"
1t
b101101 i
b101010 "!
b1011011 #!
#6460000
0"
0t
#6470000
1"
1t
b101110 i
b101011 "!
b1011100 #!
#6480000
0"
0t
#6490000
1"
1t
b101111 i
b101100 "!
b1011101 #!
#6500000
0"
0t
#6510000
1"
1t
b110000 i
b101101 "!
b1011110 #!
#6520000
0"
0t
#6530000
1"
1t
b110001 i
b101110 "!
b1011111 #!
#6540000
0"
0t
#6550000
1"
1t
b110010 i
b101111 "!
b1100000 #!
#6560000
0"
0t
#6570000
1"
1t
b110011 i
b110000 "!
b1100001 #!
#6580000
0"
0t
#6590000
1"
1t
b110100 i
b110001 "!
b1100010 #!
#6600000
0"
0t
#6610000
1"
1t
b110101 i
b110010 "!
b1100011 #!
#6620000
0"
0t
#6630000
1"
1t
b110110 i
b110011 "!
b1100100 #!
#6640000
0"
0t
#6650000
1"
1t
b110111 i
b110100 "!
b1100101 #!
#6660000
0"
0t
#6670000
1"
1t
b111000 i
b110101 "!
b1100110 #!
#6680000
0"
0t
#6690000
1"
1t
b111001 i
b110110 "!
b1100111 #!
#6700000
0"
0t
#6710000
1"
1t
b111010 i
b110111 "!
b1101000 #!
#6720000
0"
0t
#6730000
1"
1t
b111011 i
b111000 "!
b1101001 #!
#6740000
0"
0t
#6750000
1"
1t
b111100 i
b111001 "!
b1101010 #!
#6760000
0"
0t
#6770000
1"
1t
b111101 i
b111010 "!
b1101011 #!
#6780000
0"
0t
#6790000
1"
1t
b111110 i
b111011 "!
b1101100 #!
#6800000
0"
0t
